1 10 20
100 200 125
201 210 89
900 1000 174
42 749 171
10 1 20
55 263 128
3 775 171
4 355 144
7 89 116
200 570 144
14 1997 182
12 2000 182
1000 4250 238
79 9000 262
46356 645 324
343 7347 262
12 67346 340
45 832 171
56 73462 340
4623 356257 443
454 42357 324
1245 5653 238
123 456 144
456 789 171
6 5623 238
45 2357 183
11 777 171
4 666 145
453 34623 311
124512 12451 354
425 24552 282
23 246246 443
245 24546 282
75 213 125
4 76 116
2 83 116
48 216 125
663 3542 217
63 72 108
46 26 112
462 146 144
12 15 18
45 72 113
22 56 113
1 46 112
3 467 144
5 64 113
7 25 24
5 244 128
455 2415 183
541 62 144
52 145 122
2 55 113
6 87 116
3 63 113
3 72 113
6 73 116
1 34 112
3 6 9
7 55 113
2 51 112
3 71 113
9 356 144
64 146 122
46 146 122
44 71 113
46 43 30
68 13 113
57 59 33
82 235 128
52 513 144
96 313 131
57 68 108
18 47 112
47 29 110
27 47 112
69 42 113
42 14 112
14 97 119
12 97 119
12 19 21
98 101 26
87 65 116
12 45 112
64 24 113
12 29 112
14 19 21
17 29 112
14 29 112
2000 2021 144
33 77 116
666 777 171
23 91 116
74 43 116
29 43 110
67 21 113
53 23 112
10 100 119
21 49 112
29 98 119
